^C:\USERS\KIMJINHYUNG\DOCUMENTS\THEOREM\VISUAL STUDIO C++\RANDOMMAP\BADUK\SOURCE.CPP
C:\USERS\KIMJINHYUNG\DOCUMENTS\THEOREM\VISUAL STUDIO C++\RANDOMMAP\BADUK\DEBUG\VC120.PDB
C:\USERS\KIMJINHYUNG\DOCUMENTS\THEOREM\VISUAL STUDIO C++\RANDOMMAP\BADUK\DEBUG\VC120.IDB
C:\USERS\KIMJINHYUNG\DOCUMENTS\THEOREM\VISUAL STUDIO C++\RANDOMMAP\BADUK\DEBUG\SOURCE.OBJ
