^C:\USERS\KIMJINHYUNG\DOCUMENTS\THEOREM\VISUAL STUDIO C++\ADVENTURE\ADVENTURE\ITEM.CPP
/c /Zi /nologo /W3 /WX- /O2 /Oi /Oy- /GL /D WIN32 /D NDEBUG /D _CONSOLE /D _LIB /D _UNICODE /D UNICODE /Gm- /EHsc /MD /GS /Gy /fp:precise /Zc:wchar_t /Zc:forScope /Fo"RELEASE\\" /Fd"RELEASE\VC120.PDB" /Gd /TP /analyze- C:\USERS\KIMJINHYUNG\DOCUMENTS\THEOREM\VISUAL STUDIO C++\ADVENTURE\ADVENTURE\ITEM.CPP
^C:\USERS\KIMJINHYUNG\DOCUMENTS\THEOREM\VISUAL STUDIO C++\ADVENTURE\ADVENTURE\MAP.CPP
/c /Zi /nologo /W3 /WX- /O2 /Oi /Oy- /GL /D WIN32 /D NDEBUG /D _CONSOLE /D _LIB /D _UNICODE /D UNICODE /Gm- /EHsc /MD /GS /Gy /fp:precise /Zc:wchar_t /Zc:forScope /Fo"RELEASE\\" /Fd"RELEASE\VC120.PDB" /Gd /TP /analyze- C:\USERS\KIMJINHYUNG\DOCUMENTS\THEOREM\VISUAL STUDIO C++\ADVENTURE\ADVENTURE\MAP.CPP
^C:\USERS\KIMJINHYUNG\DOCUMENTS\THEOREM\VISUAL STUDIO C++\ADVENTURE\ADVENTURE\PUBLICGOODS.CPP
/c /Zi /nologo /W3 /WX- /O2 /Oi /Oy- /GL /D WIN32 /D NDEBUG /D _CONSOLE /D _LIB /D _UNICODE /D UNICODE /Gm- /EHsc /MD /GS /Gy /fp:precise /Zc:wchar_t /Zc:forScope /Fo"RELEASE\\" /Fd"RELEASE\VC120.PDB" /Gd /TP /analyze- C:\USERS\KIMJINHYUNG\DOCUMENTS\THEOREM\VISUAL STUDIO C++\ADVENTURE\ADVENTURE\PUBLICGOODS.CPP
^C:\USERS\KIMJINHYUNG\DOCUMENTS\THEOREM\VISUAL STUDIO C++\ADVENTURE\ADVENTURE\MAIN.CPP
/c /Zi /nologo /W3 /WX- /O2 /Oi /Oy- /GL /D WIN32 /D NDEBUG /D _CONSOLE /D _LIB /D _UNICODE /D UNICODE /Gm- /EHsc /MD /GS /Gy /fp:precise /Zc:wchar_t /Zc:forScope /Fo"RELEASE\\" /Fd"RELEASE\VC120.PDB" /Gd /TP /analyze- C:\USERS\KIMJINHYUNG\DOCUMENTS\THEOREM\VISUAL STUDIO C++\ADVENTURE\ADVENTURE\MAIN.CPP
^C:\USERS\KIMJINHYUNG\DOCUMENTS\THEOREM\VISUAL STUDIO C++\ADVENTURE\ADVENTURE\ENTRYSCENE.CPP
/c /Zi /nologo /W3 /WX- /O2 /Oi /Oy- /GL /D WIN32 /D NDEBUG /D _CONSOLE /D _LIB /D _UNICODE /D UNICODE /Gm- /EHsc /MD /GS /Gy /fp:precise /Zc:wchar_t /Zc:forScope /Fo"RELEASE\\" /Fd"RELEASE\VC120.PDB" /Gd /TP /analyze- C:\USERS\KIMJINHYUNG\DOCUMENTS\THEOREM\VISUAL STUDIO C++\ADVENTURE\ADVENTURE\ENTRYSCENE.CPP
^C:\USERS\KIMJINHYUNG\DOCUMENTS\THEOREM\VISUAL STUDIO C++\ADVENTURE\ADVENTURE\GAMERULE.CPP
/c /Zi /nologo /W3 /WX- /O2 /Oi /Oy- /GL /D WIN32 /D NDEBUG /D _CONSOLE /D _LIB /D _UNICODE /D UNICODE /Gm- /EHsc /MD /GS /Gy /fp:precise /Zc:wchar_t /Zc:forScope /Fo"RELEASE\\" /Fd"RELEASE\VC120.PDB" /Gd /TP /analyze- C:\USERS\KIMJINHYUNG\DOCUMENTS\THEOREM\VISUAL STUDIO C++\ADVENTURE\ADVENTURE\GAMERULE.CPP
^C:\USERS\KIMJINHYUNG\DOCUMENTS\THEOREM\VISUAL STUDIO C++\ADVENTURE\ADVENTURE\PLAYSCENE.CPP
/c /Zi /nologo /W3 /WX- /O2 /Oi /Oy- /GL /D WIN32 /D NDEBUG /D _CONSOLE /D _LIB /D _UNICODE /D UNICODE /Gm- /EHsc /MD /GS /Gy /fp:precise /Zc:wchar_t /Zc:forScope /Fo"RELEASE\\" /Fd"RELEASE\VC120.PDB" /Gd /TP /analyze- C:\USERS\KIMJINHYUNG\DOCUMENTS\THEOREM\VISUAL STUDIO C++\ADVENTURE\ADVENTURE\PLAYSCENE.CPP
^C:\USERS\KIMJINHYUNG\DOCUMENTS\THEOREM\VISUAL STUDIO C++\ADVENTURE\ADVENTURE\LIFE.CPP
/c /Zi /nologo /W3 /WX- /O2 /Oi /Oy- /GL /D WIN32 /D NDEBUG /D _CONSOLE /D _LIB /D _UNICODE /D UNICODE /Gm- /EHsc /MD /GS /Gy /fp:precise /Zc:wchar_t /Zc:forScope /Fo"RELEASE\\" /Fd"RELEASE\VC120.PDB" /Gd /TP /analyze- C:\USERS\KIMJINHYUNG\DOCUMENTS\THEOREM\VISUAL STUDIO C++\ADVENTURE\ADVENTURE\LIFE.CPP
